…
-   1.  There are two error here, (1) the function is filter() and not
        fliter(). Also, we need double equal sign to establish equality

<!-- -->

    filter(mpg, cyl == 8)

    ## # A tibble: 70 × 11
    ##    manufacturer model      displ  year   cyl trans drv     cty   hwy fl    class
    ##    <chr>        <chr>      <dbl> <int> <int> <chr> <chr> <int> <int> <chr> <chr>
    ##  1 audi         a6 quattro   4.2  2008     8 auto… 4        16    23 p     mids…
    ##  2 chevrolet    c1500 sub…   5.3  2008     8 auto… r        14    20 r     suv  
    ##  3 chevrolet    c1500 sub…   5.3  2008     8 auto… r        11    15 e     suv  
    ##  4 chevrolet    c1500 sub…   5.3  2008     8 auto… r        14    20 r     suv  
    ##  5 chevrolet    c1500 sub…   5.7  1999     8 auto… r        13    17 r     suv  
    ##  6 chevrolet    c1500 sub…   6    2008     8 auto… r        12    17 r     suv  
    ##  7 chevrolet    corvette     5.7  1999     8 manu… r        16    26 p     2sea…
    ##  8 chevrolet    corvette     5.7  1999     8 auto… r        15    23 p     2sea…
    ##  9 chevrolet    corvette     6.2  2008     8 manu… r        16    26 p     2sea…
    ## 10 chevrolet    corvette     6.2  2008     8 auto… r        15    25 p     2sea…
    ## # … with 60 more rows

-   1.  The correct data frame name is ‘diamonds’ and not ‘diamond’

<!-- -->

    filter(diamonds, carat > 3)

    ## # A tibble: 32 × 10
    ##    carat cut     color clarity depth table price     x     y     z
    ##    <dbl> <ord>   <ord> <ord>   <dbl> <dbl> <int> <dbl> <dbl> <dbl>
    ##  1  3.01 Premium I     I1       62.7    58  8040  9.1   8.97  5.67
    ##  2  3.11 Fair    J     I1       65.9    57  9823  9.15  9.02  5.98
    ##  3  3.01 Premium F     I1       62.2    56  9925  9.24  9.13  5.73
    ##  4  3.05 Premium E     I1       60.9    58 10453  9.26  9.25  5.66
    ##  5  3.02 Fair    I     I1       65.2    56 10577  9.11  9.02  5.91
    ##  6  3.01 Fair    H     I1       56.1    62 10761  9.54  9.38  5.31
    ##  7  3.65 Fair    H     I1       67.1    53 11668  9.53  9.48  6.38
    ##  8  3.24 Premium H     I1       62.1    58 12300  9.44  9.4   5.85
    ##  9  3.22 Ideal   I     I1       62.6    55 12545  9.49  9.42  5.92
    ## 10  3.5  Ideal   H     I1       62.8    57 12587  9.65  9.59  6.03
    ## # … with 22 more rows
…
### 3.2 Transformations: Filter rows with filter() (10 pts)

**1. Using the flights data from the nycflights13 package. Find all
flights that:**

    library(nycflights13)
    view(flights)
    ?flights

**i. Had an arrival delay of three or more hours**

    filter(flights, arr_delay / 60 >= 3)

    ## # A tibble: 3,897 × 19
    ##     year month   day dep_time sched_dep_time dep_delay arr_time sched_arr_time
    ##    <int> <int> <int>    <int>          <int>     <dbl>    <int>          <int>
    ##  1  2013     1     1      848           1835       853     1001           1950
    ##  2  2013     1     1     1815           1325       290     2120           1542
    ##  3  2013     1     1     1842           1422       260     1958           1535
    ##  4  2013     1     1     2006           1630       216     2230           1848
    ##  5  2013     1     1     2115           1700       255     2330           1920
    ##  6  2013     1     1     2205           1720       285       46           2040
    ##  7  2013     1     1     2312           2000       192       21           2110
    ##  8  2013     1     1     2343           1724       379      314           1938
    ##  9  2013     1     2     1244            900       224     1431           1104
    ## 10  2013     1     2     1332            904       268     1616           1128
    ## # … with 3,887 more rows, and 11 more variables: arr_delay <dbl>,
    ## #   carrier <chr>, flight <int>, tailnum <chr>, origin <chr>, dest <chr>,
    ## #   air_time <dbl>, distance <dbl>, hour <dbl>, minute <dbl>, time_hour <dttm>

**ii. Flew to Houston (IAH or HOU)**

    filter(flights,dest == "IAH" | dest == "HOU")

    ## # A tibble: 9,313 × 19
    ##     year month   day dep_time sched_dep_time dep_delay arr_time sched_arr_time
    ##    <int> <int> <int>    <int>          <int>     <dbl>    <int>          <int>
    ##  1  2013     1     1      517            515         2      830            819
    ##  2  2013     1     1      533            529         4      850            830
    ##  3  2013     1     1      623            627        -4      933            932
    ##  4  2013     1     1      728            732        -4     1041           1038
    ##  5  2013     1     1      739            739         0     1104           1038
    ##  6  2013     1     1      908            908         0     1228           1219
    ##  7  2013     1     1     1028           1026         2     1350           1339
    ##  8  2013     1     1     1044           1045        -1     1352           1351
    ##  9  2013     1     1     1114            900       134     1447           1222
    ## 10  2013     1     1     1205           1200         5     1503           1505
    ## # … with 9,303 more rows, and 11 more variables: arr_delay <dbl>,
    ## #   carrier <chr>, flight <int>, tailnum <chr>, origin <chr>, dest <chr>,
    ## #   air_time <dbl>, distance <dbl>, hour <dbl>, minute <dbl>, time_hour <dttm>

**iii. Were operated by United, American, or Southwest**

-   Looking up airline names from their carrier codes

<!-- -->

    view(airlines)

    filter(flights,carrier == "UA" | carrier == "AA" | carrier == "WN")

    ## # A tibble: 103,669 × 19
    ##     year month   day dep_time sched_dep_time dep_delay arr_time sched_arr_time
    ##    <int> <int> <int>    <int>          <int>     <dbl>    <int>          <int>
    ##  1  2013     1     1      517            515         2      830            819
    ##  2  2013     1     1      533            529         4      850            830
    ##  3  2013     1     1      542            540         2      923            850
    ##  4  2013     1     1      554            558        -4      740            728
    ##  5  2013     1     1      558            600        -2      753            745
    ##  6  2013     1     1      558            600        -2      924            917
    ##  7  2013     1     1      558            600        -2      923            937
    ##  8  2013     1     1      559            600        -1      941            910
    ##  9  2013     1     1      559            600        -1      854            902
    ## 10  2013     1     1      606            610        -4      858            910
    ## # … with 103,659 more rows, and 11 more variables: arr_delay <dbl>,
    ## #   carrier <chr>, flight <int>, tailnum <chr>, origin <chr>, dest <chr>,
    ## #   air_time <dbl>, distance <dbl>, hour <dbl>, minute <dbl>, time_hour <dttm>

**iv. Departed in spring (March, April, May and June)**

    filter(flights,month == 3 | month == 4 | month == 5 | month == 6)

    ## # A tibble: 114,203 × 19
    ##     year month   day dep_time sched_dep_time dep_delay arr_time sched_arr_time
    ##    <int> <int> <int>    <int>          <int>     <dbl>    <int>          <int>
    ##  1  2013     3     1        4           2159       125      318             56
    ##  2  2013     3     1       50           2358        52      526            438
    ##  3  2013     3     1      117           2245       152      223           2354
    ##  4  2013     3     1      454            500        -6      633            648
    ##  5  2013     3     1      505            515       -10      746            810
    ##  6  2013     3     1      521            530        -9      813            827
    ##  7  2013     3     1      537            540        -3      856            850
    ##  8  2013     3     1      541            545        -4     1014           1023
    ##  9  2013     3     1      549            600       -11      639            703
    ## 10  2013     3     1      550            600       -10      747            801
    ## # … with 114,193 more rows, and 11 more variables: arr_delay <dbl>,
    ## #   carrier <chr>, flight <int>, tailnum <chr>, origin <chr>, dest <chr>,
    ## #   air_time <dbl>, distance <dbl>, hour <dbl>, minute <dbl>, time_hour <dttm>

**v. Arrived more than two hours late, but didn’t leave late**

    filter(flights, arr_delay / 60 > 2 & dep_delay <= 0)

    ## # A tibble: 29 × 19
    ##     year month   day dep_time sched_dep_time dep_delay arr_time sched_arr_time
    ##    <int> <int> <int>    <int>          <int>     <dbl>    <int>          <int>
    ##  1  2013     1    27     1419           1420        -1     1754           1550
    ##  2  2013    10     7     1350           1350         0     1736           1526
    ##  3  2013    10     7     1357           1359        -2     1858           1654
    ##  4  2013    10    16      657            700        -3     1258           1056
    ##  5  2013    11     1      658            700        -2     1329           1015
    ##  6  2013     3    18     1844           1847        -3       39           2219
    ##  7  2013     4    17     1635           1640        -5     2049           1845
    ##  8  2013     4    18      558            600        -2     1149            850
    ##  9  2013     4    18      655            700        -5     1213            950
    ## 10  2013     5    22     1827           1830        -3     2217           2010
    ## # … with 19 more rows, and 11 more variables: arr_delay <dbl>, carrier <chr>,
    ## #   flight <int>, tailnum <chr>, origin <chr>, dest <chr>, air_time <dbl>,
    ## #   distance <dbl>, hour <dbl>, minute <dbl>, time_hour <dttm>

**vi. Were delayed by at least an hour, but made up over 30 minutes in
flight**

    filter(flights,dep_delay/60>=1 & dep_delay - 30 > arr_delay)

    ## # A tibble: 1,844 × 19
    ##     year month   day dep_time sched_dep_time dep_delay arr_time sched_arr_time
    ##    <int> <int> <int>    <int>          <int>     <dbl>    <int>          <int>
    ##  1  2013     1     1     2205           1720       285       46           2040
    ##  2  2013     1     1     2326           2130       116      131             18
    ##  3  2013     1     3     1503           1221       162     1803           1555
    ##  4  2013     1     3     1839           1700        99     2056           1950
    ##  5  2013     1     3     1850           1745        65     2148           2120
    ##  6  2013     1     3     1941           1759       102     2246           2139
    ##  7  2013     1     3     1950           1845        65     2228           2227
    ##  8  2013     1     3     2015           1915        60     2135           2111
    ##  9  2013     1     3     2257           2000       177       45           2224
    ## 10  2013     1     4     1917           1700       137     2135           1950
    ## # … with 1,834 more rows, and 11 more variables: arr_delay <dbl>,
    ## #   carrier <chr>, flight <int>, tailnum <chr>, origin <chr>, dest <chr>,
    ## #   air_time <dbl>, distance <dbl>, hour <dbl>, minute <dbl>, time_hour <dttm>

**vii. Departed between midnight and 5am (inclusive)**

    filter(flights, dep_time > 0 & dep_time <= 500)

    ## # A tibble: 1,487 × 19
    ##     year month   day dep_time sched_dep_time dep_delay arr_time sched_arr_time
    ##    <int> <int> <int>    <int>          <int>     <dbl>    <int>          <int>
    ##  1  2013     1     2       42           2359        43      518            442
    ##  2  2013     1     2      126           2250       156      233           2359
    ##  3  2013     1     2      458            500        -2      703            650
    ##  4  2013     1     3       32           2359        33      504            442
    ##  5  2013     1     3       50           2145       185      203           2311
    ##  6  2013     1     3      235           2359       156      700            437
    ##  7  2013     1     3      458            500        -2      650            650
    ##  8  2013     1     4       25           2359        26      505            442
    ##  9  2013     1     4      106           2245       141      201           2356
    ## 10  2013     1     4      456            500        -4      631            650
    ## # … with 1,477 more rows, and 11 more variables: arr_delay <dbl>,
    ## #   carrier <chr>, flight <int>, tailnum <chr>, origin <chr>, dest <chr>,
    ## #   air_time <dbl>, distance <dbl>, hour <dbl>, minute <dbl>, time_hour <dttm>
…
<!-- -->

    sum(is.na(flights$dep_time))

    ## [1] 8255

-   For the flights that have missing departure time, 5 other variables
    have missing values:dep\_delay (8255), arr\_time (8255), arr\_delay
    (8255), tailnum (2512), air\_time (8255)

<!-- -->

    filter(flights, is.na(dep_time))

    ## # A tibble: 8,255 × 19
    ##     year month   day dep_time sched_dep_time dep_delay arr_time sched_arr_time
    ##    <int> <int> <int>    <int>          <int>     <dbl>    <int>          <int>
    ##  1  2013     1     1       NA           1630        NA       NA           1815
    ##  2  2013     1     1       NA           1935        NA       NA           2240
    ##  3  2013     1     1       NA           1500        NA       NA           1825
    ##  4  2013     1     1       NA            600        NA       NA            901
    ##  5  2013     1     2       NA           1540        NA       NA           1747
    ##  6  2013     1     2       NA           1620        NA       NA           1746
    ##  7  2013     1     2       NA           1355        NA       NA           1459
    ##  8  2013     1     2       NA           1420        NA       NA           1644
    ##  9  2013     1     2       NA           1321        NA       NA           1536
    ## 10  2013     1     2       NA           1545        NA       NA           1910
    ## # … with 8,245 more rows, and 11 more variables: arr_delay <dbl>,
    ## #   carrier <chr>, flight <int>, tailnum <chr>, origin <chr>, dest <chr>,
    ## #   air_time <dbl>, distance <dbl>, hour <dbl>, minute <dbl>, time_hour <dttm>
…
    ## [1] FALSE

Evaluate for false, because NA represents something that is ambiguous or
unknown (it could be true or false), and given that part of it is
already FALSE, the result will be FALSE

### 3.3 Transformations: Select columns with select() (10 pts)

**1. What happens if you include the name of a variable multiple times
in a select() call?**

    select(flights, day, month, day, year, day, year, dep_time)

    ## # A tibble: 336,776 × 4
    ##      day month  year dep_time
    ##    <int> <int> <int>    <int>
    ##  1     1     1  2013      517
    ##  2     1     1  2013      533
    ##  3     1     1  2013      542
    ##  4     1     1  2013      544
    ##  5     1     1  2013      554
    ##  6     1     1  2013      554
    ##  7     1     1  2013      555
    ##  8     1     1  2013      557
    ##  9     1     1  2013      557
    ## 10     1     1  2013      558
    ## # … with 336,766 more rows
…
Source:
<https://stackoverflow.com/questions/8361589/turning-off-case-sensitivity-in-r>

**3. Brainstorm as many distinct ways as possible to select dep\_time,
dep\_delay, arr\_time, and arr\_delay from flights.**

Four ways:

1.  

<!-- -->

    select(flights, dep_time, dep_delay, arr_time, arr_delay)

    ## # A tibble: 336,776 × 4
    ##    dep_time dep_delay arr_time arr_delay
    ##       <int>     <dbl>    <int>     <dbl>
    ##  1      517         2      830        11
    ##  2      533         4      850        20
    ##  3      542         2      923        33
    ##  4      544        -1     1004       -18
    ##  5      554        -6      812       -25
    ##  6      554        -4      740        12
    ##  7      555        -5      913        19
    ##  8      557        -3      709       -14
    ##  9      557        -3      838        -8
    ## 10      558        -2      753         8
    ## # … with 336,766 more rows

1.  

<!-- -->

    select(flights, starts_with("dep_"), starts_with("arr_"))

    ## # A tibble: 336,776 × 4
    ##    dep_time dep_delay arr_time arr_delay
    ##       <int>     <dbl>    <int>     <dbl>
    ##  1      517         2      830        11
    ##  2      533         4      850        20
    ##  3      542         2      923        33
    ##  4      544        -1     1004       -18
    ##  5      554        -6      812       -25
    ##  6      554        -4      740        12
    ##  7      555        -5      913        19
    ##  8      557        -3      709       -14
    ##  9      557        -3      838        -8
    ## 10      558        -2      753         8
    ## # … with 336,766 more rows

1.  

<!-- -->

    select(flights, contains("_time") & -(contains("sched")) & -(contains("air")) | contains("delay"))

    ## # A tibble: 336,776 × 4
    ##    dep_time arr_time dep_delay arr_delay
    ##       <int>    <int>     <dbl>     <dbl>
    ##  1      517      830         2        11
    ##  2      533      850         4        20
    ##  3      542      923         2        33
    ##  4      544     1004        -1       -18
    ##  5      554      812        -6       -25
    ##  6      554      740        -4        12
    ##  7      555      913        -5        19
    ##  8      557      709        -3       -14
    ##  9      557      838        -3        -8
    ## 10      558      753        -2         8
    ## # … with 336,766 more rows

1.  

<!-- -->

    var <- c("dep_time", "dep_delay", "arr_time", "arr_delay")
    select(flights,var)

    ## Note: Using an external vector in selections is ambiguous.
    ## ℹ Use `all_of(var)` instead of `var` to silence this message.
    ## ℹ See <https://tidyselect.r-lib.org/reference/faq-external-vector.html>.
    ## This message is displayed once per session.

    ## # A tibble: 336,776 × 4
    ##    dep_time dep_delay arr_time arr_delay
    ##       <int>     <dbl>    <int>     <dbl>
    ##  1      517         2      830        11
    ##  2      533         4      850        20
    ##  3      542         2      923        33
    ##  4      544        -1     1004       -18
    ##  5      554        -6      812       -25
    ##  6      554        -4      740        12
    ##  7      555        -5      913        19
    ##  8      557        -3      709       -14
    ##  9      557        -3      838        -8
    ## 10      558        -2      753         8
    ## # … with 336,766 more rows
…
